{
    "enabled": true, 
    "externalUuid4": "560a6be0-dfbf-40b7-a3bd-790e83768631", 
    "interpreter": 1, 
    "key": "rhelattunesvcstestvmwarepowercli", 
    "name": "RHEL Attune SVCS Test VMWare.PowerCLI", 
    "osCredKey": "attunenodeuserattune", 
    "serverKey": "attunenode", 
    "successExitCode": 0, 
    "type": "com.servertribe.attune.tuples.StepSshTuple"
}