{
    "enabled": true, 
    "externalUuid4": "b3fd16b9-dc87-47f5-880b-da2bef9c011e", 
    "interpreter": 1, 
    "key": "swpessssetupselinux", 
    "name": "SWPES SS Setup SELinux", 
    "osCredKey": "linuxrootuser", 
    "serverKey": "targetserverlin", 
    "successExitCode": 0, 
    "type": "com.servertribe.attune.tuples.StepSshTuple"
}