{
    "enabled": true, 
    "externalUuid4": "f720d2d5-ae12-4212-8679-230021e731d5", 
    "interpreter": 1, 
    "key": "archiveattunev3files", 
    "name": "Archive Attune v3 files", 
    "osCredKey": "attunenodeuserattune", 
    "serverKey": "attunenode", 
    "successExitCode": 0, 
    "type": "com.servertribe.attune.tuples.StepSshTuple"
}