{
    "concurrency": 1, 
    "enabled": true, 
    "externalUuid4": "f28c85aa-a02d-4eed-850e-8ed51f9f60bf", 
    "isBlueprint": false, 
    "key": "rhelattuneprepareplatform", 
    "links": [
        {
            "order": 0, 
            "stepKey": "rhelattunesetupdisks"
        }, 
        {
            "order": 50, 
            "stepKey": "rhelattunesetuposprerequisites"
        }, 
        {
            "order": 100, 
            "stepKey": "rhelattuneconfigureos"
        }, 
        {
            "order": 150, 
            "stepKey": "rhelattunesetupattuneuser"
        }, 
        {
            "order": 200, 
            "stepKey": "rhelattuneinstallsrcpythonpostgresql"
        }, 
        {
            "order": 250, 
            "stepKey": "rhelattunecreatepostgresqldb"
        }, 
        {
            "order": 300, 
            "stepKey": "rhelattunesetupvcentersupport"
        }, 
        {
            "order": 350, 
            "stepKey": "rhelattunesetupovirtsupport"
        }, 
        {
            "order": 400, 
            "stepKey": "rhelattunesetupbootisosupport"
        }, 
        {
            "order": 450, 
            "stepKey": "rhelattunesetupattuneconfig"
        }
    ], 
    "name": "RHEL Attune Prepare Platform", 
    "type": "com.servertribe.attune.tuples.StepGroupTuple"
}