{
    "concurrency": 1, 
    "enabled": true, 
    "externalUuid4": "66d69baf-ece0-4714-acaf-053b5251d317", 
    "isBlueprint": false, 
    "key": "rhelinstallextradependenciesforv5", 
    "links": [
        {
            "order": 0, 
            "stepKey": "rieddeployofflinexzlibs"
        }, 
        {
            "order": 50, 
            "stepKey": "riedinstallofflinexzlibs"
        }, 
        {
            "order": 100, 
            "stepKey": "riedcleanupofflinexzlibs"
        }, 
        {
            "order": 150, 
            "stepKey": "rieddeployofflinesqlitedevel"
        }, 
        {
            "order": 200, 
            "stepKey": "riedinstallofflinesqlitedevel"
        }, 
        {
            "order": 250, 
            "stepKey": "riedcleanupofflinesolitedevel"
        }
    ], 
    "name": "RHEL Install Extra Dependencies for v5", 
    "type": "com.servertribe.attune.tuples.StepGroupTuple"
}