{
    "enabled": true, 
    "externalUuid4": "63c5aab4-506c-4f6e-bdc4-89a99a134843", 
    "interpreter": 1, 
    "key": "swpesssinstallsamba", 
    "name": "SWPES SS Install Samba", 
    "osCredKey": "linuxrootuser", 
    "serverKey": "targetserverlin", 
    "successExitCode": 0, 
    "type": "com.servertribe.attune.tuples.StepSshTuple"
}