{
    "enabled": true, 
    "externalUuid4": "33fd3b82-d404-435a-9a4f-7fbcd76b970d", 
    "interpreter": 1, 
    "key": "swpesssinstallprerequisites", 
    "name": "SWPES SS Install Prerequisites", 
    "osCredKey": "linuxrootuser", 
    "serverKey": "targetserverlin", 
    "successExitCode": 0, 
    "type": "com.servertribe.attune.tuples.StepSshTuple"
}