{
    "enabled": true, 
    "externalUuid4": "7c0aa365-9ea6-4ffb-a3bf-06138b48ff27", 
    "interpreter": 1, 
    "key": "stopparallelsvmonmacos", 
    "name": "Stop Parallels VM on macOS", 
    "osCredKey": "workeruser", 
    "serverKey": "workernode", 
    "successExitCode": 0, 
    "type": "com.servertribe.attune.tuples.StepSshTuple"
}