{
    "enabled": true, 
    "externalUuid4": "fc52d281-bf9b-46c6-a3bf-791d72b41494", 
    "interpreter": 1, 
    "key": "dumptheattunev4database", 
    "name": "Dump the Attune v4 database", 
    "osCredKey": "attunenodeuserattune", 
    "serverKey": "attunenode", 
    "successExitCode": 0, 
    "type": "com.servertribe.attune.tuples.StepSshTuple"
}