{
    "enabled": true, 
    "externalUuid4": "6fcb73f6-f7c4-4f3d-8baa-44209854e82a", 
    "interpreter": 1, 
    "key": "rhelattunesovsinstallpython3", 
    "name": "RHEL Attune SOVS Install Python3", 
    "osCredKey": "attunenodeuserroot", 
    "serverKey": "attunenode", 
    "successExitCode": 0, 
    "type": "com.servertribe.attune.tuples.StepSshTuple"
}