{
    "concurrency": 1, 
    "enabled": true, 
    "externalUuid4": "8a5d6600-643f-4f1c-9449-b499740619a1", 
    "isBlueprint": true, 
    "key": "backupattunev4", 
    "links": [
        {
            "order": 50, 
            "stepKey": "dumptheattunev4database"
        }, 
        {
            "order": 100, 
            "stepKey": "haltattuneservices"
        }, 
        {
            "order": 150, 
            "stepKey": "archiveattunev4files"
        }
    ], 
    "name": "Backup Attune v4", 
    "type": "com.servertribe.attune.tuples.StepGroupTuple"
}