{
    "enabled": true, 
    "externalUuid4": "975fdb9e-9355-4fd3-8e28-a0482c6c4aa4", 
    "interpreter": 1, 
    "key": "swpessssetattunefolderpermissions", 
    "name": "SWPES SS Set Attune Folder Permissions", 
    "osCredKey": "linuxattuneuser", 
    "serverKey": "targetserverlin", 
    "successExitCode": 0, 
    "type": "com.servertribe.attune.tuples.StepSshTuple"
}