{
    "enabled": true, 
    "externalUuid4": "b2f06b15-c298-42c1-8199-eb6107361add", 
    "interpreter": 2, 
    "interpreterCommand": "", 
    "interpreterScriptExt": null, 
    "interpreterScriptSyntax": "", 
    "key": "bphvdfapstartvm", 
    "name": "BPHVDFAP Start VM", 
    "osCredKey": "hypervhostuser", 
    "serverKey": "hypervhost", 
    "successExitCode": 0, 
    "timeout": 60, 
    "type": "com.servertribe.attune.tuples.StepWinRmTuple"
}