{
    "enabled": true, 
    "externalUuid4": "d05e628d-e0fd-4dab-adb3-558b01c0115b", 
    "interpreter": 1, 
    "key": "downloadandinstallpycharmcommunity", 
    "name": "Download and Install pycharm-community", 
    "osCredKey": "attunenodeuserattune", 
    "serverKey": "attunenode", 
    "successExitCode": 0, 
    "type": "com.servertribe.attune.tuples.StepSshTuple"
}