{
    "enabled": true, 
    "externalUuid4": "202b91e2-eec6-4fc6-a2cb-10f60a1991cf", 
    "interpreter": 1, 
    "key": "uaremovev5xxreleasefolder", 
    "name": "UA Remove v5.x.x Release Folder", 
    "osCredKey": "linuxattuneuser", 
    "serverKey": "attuneserver", 
    "successExitCode": 0, 
    "type": "com.servertribe.attune.tuples.StepSshTuple"
}