{
    "concurrency": 1, 
    "enabled": true, 
    "externalUuid4": "cd5406d6-2cb3-4b88-8f0b-553ec813d389", 
    "isBlueprint": false, 
    "key": "rhelattunesetupbootisosupport", 
    "links": [
        {
            "order": 0, 
            "stepKey": "rhelattunesbsinstalldependencies"
        }
    ], 
    "name": "RHEL Attune Setup Boot ISO Support", 
    "type": "com.servertribe.attune.tuples.StepGroupTuple"
}