{
    "enabled": true, 
    "externalUuid4": "2e093a5e-3b20-482a-90db-8c634c24f4d3", 
    "interpreter": 1, 
    "key": "rhelattunesacconfigureattunecfg", 
    "name": "RHEL Attune SAC Configure Attune CFG", 
    "osCredKey": "attunenodeuserattune", 
    "serverKey": "attunenode", 
    "successExitCode": 0, 
    "type": "com.servertribe.attune.tuples.StepSshTuple"
}