{
    "enabled": true, 
    "externalUuid4": "26654df8-b7ba-4a34-b6b5-aea9c20234dd", 
    "interpreter": 1, 
    "key": "swpeicwwimlibaddsymboliclinks", 
    "name": "SWPE ICW wimlib Add Symbolic Links", 
    "osCredKey": "linuxrootuser", 
    "serverKey": "targetserverlin", 
    "successExitCode": 0, 
    "type": "com.servertribe.attune.tuples.StepSshTuple"
}