{
    "enabled": true, 
    "externalUuid4": "17c47e74-f410-4888-9e65-1a20f88fa5fd", 
    "interpreter": 1, 
    "key": "rheltestntp", 
    "name": "RHEL Test NTP", 
    "osCredKey": "attunenodeuserroot", 
    "serverKey": "attunenode", 
    "successExitCode": 0, 
    "type": "com.servertribe.attune.tuples.StepSshTuple"
}