{
    "enabled": true, 
    "externalUuid4": "e4fbea79-11e3-419d-b66f-2c60cd29906d", 
    "interpreter": 1, 
    "key": "riedcleanupofflinexzlibs", 
    "name": "RIED Clean Up Offline xz-libs", 
    "osCredKey": "attunenodeuserattune", 
    "serverKey": "attunenode", 
    "successExitCode": 0, 
    "type": "com.servertribe.attune.tuples.StepSshTuple"
}