{
    "archiveKey": "offlinepythonpypisforattune", 
    "deployPath": "/tmp/attune_offline/pypis", 
    "enabled": true, 
    "externalUuid4": "9eda0d09-54d4-482d-a672-a7aeb3491889", 
    "key": "rhelattunepythonpypis", 
    "name": "RHEL Attune Python PyPIs", 
    "osCredKey": "attunenodeuserattune", 
    "serverKey": "attunenode", 
    "type": "com.servertribe.attune.tuples.StepPushDesignFileTuple", 
    "unpack": true
}