{
    "enabled": true, 
    "externalUuid4": "f13bc646-7885-4953-8090-1cfe54466c28", 
    "interpreter": 1, 
    "key": "pycharmcommunityshortcut", 
    "name": "PyCharm Community Shortcut", 
    "osCredKey": "attunenodeuserattune", 
    "serverKey": "attunenode", 
    "successExitCode": 0, 
    "type": "com.servertribe.attune.tuples.StepSshTuple"
}