{
    "enabled": true, 
    "externalUuid4": "86a274f7-9545-4271-9f7e-60f4a69fd610", 
    "interpreter": 1, 
    "key": "rhelattunesaskillattune", 
    "name": "RHEL Attune SAS Kill Attune", 
    "osCredKey": "attunenodeuserattune", 
    "serverKey": "attunenode", 
    "successExitCode": 0, 
    "type": "com.servertribe.attune.tuples.StepSshTuple"
}