{
    "concurrency": 1, 
    "enabled": true, 
    "externalUuid4": "e7d37aeb-86c0-4ba3-8eab-59c4fa0ea88e", 
    "isBlueprint": false, 
    "key": "installgnomedesktop", 
    "links": [
        {
            "order": 0, 
            "stepKey": "installworkstation"
        }
    ], 
    "name": "Install Gnome-Desktop", 
    "type": "com.servertribe.attune.tuples.StepGroupTuple"
}