{
    "enabled": true, 
    "externalUuid4": "4954a0a4-a225-46e5-b193-962c8f0158b8", 
    "interpreter": 1, 
    "key": "linshutdown", 
    "name": "LIN Shutdown", 
    "osCredKey": "attunenodeuserroot", 
    "serverKey": "targetserverlin", 
    "successExitCode": 0, 
    "type": "com.servertribe.attune.tuples.StepSshTuple"
}