{
    "concurrency": 1, 
    "enabled": true, 
    "externalUuid4": "97de4fd8-7e18-4a2b-8a8c-4c9dc0aceb97", 
    "isBlueprint": false, 
    "key": "upgradeattunev4tov4313", 
    "links": [
        {
            "order": 0, 
            "stepKey": "deployattunereleasev4313"
        }, 
        {
            "order": 50, 
            "stepKey": "installattunereleasev4313"
        }, 
        {
            "order": 100, 
            "stepKey": "cleanupattunev4313deployment"
        }
    ], 
    "name": "Upgrade Attune v4 to v4.3.13", 
    "type": "com.servertribe.attune.tuples.StepGroupTuple"
}