{
    "enabled": true, 
    "externalUuid4": "8e0829dd-932a-4b5e-a7f6-46cffe78968f", 
    "interpreter": 1, 
    "key": "createattunedevelopmentvirtualenvironment", 
    "name": "Create Attune Development Virtual Environment", 
    "osCredKey": "attunenodeuserattune", 
    "serverKey": "attunenode", 
    "successExitCode": 0, 
    "type": "com.servertribe.attune.tuples.StepSshTuple"
}