{
    "concurrency": 1, 
    "enabled": true, 
    "externalUuid4": "2c1b2c4d-46ac-4b5f-8c31-98cdab8b8352", 
    "isBlueprint": true, 
    "key": "buildattunev5serveroncentosandparallelsonmacos", 
    "links": [
        {
            "order": 0, 
            "stepKey": "prepareparallelsonmacosvirtualdisksforattuneplatform"
        }, 
        {
            "order": 100, 
            "stepKey": "setupattuneplatform"
        }, 
        {
            "order": 150, 
            "stepKey": "installattunev5software"
        }
    ], 
    "name": "Build Attune v5 Server on CentOS and Parallels on macOS", 
    "type": "com.servertribe.attune.tuples.StepGroupTuple"
}